Lab4/simulation/qsim/LogicalStep_Lab4.msim.vcd
$comment
	File created using the following command:
		vcd file LogicalStep_Lab4.msim.vcd -direction
$end
$date
	Fri Mar 29 14:27:59 2024
$end
$version
	ModelSim Version 10.5b
$end
$timescale
	1ps
$end

$scope module logicalstep_lab4_top_vhd_vec_tst $end
$var wire 1 ! blink_sig_s $end
$var wire 1 " clkin_50 $end
$var wire 1 # ew_amber_s $end
$var wire 1 $ ew_green_s $end
$var wire 1 % ew_red_s $end
$var wire 1 & leds [7] $end
$var wire 1 ' leds [6] $end
$var wire 1 ( leds [5] $end
$var wire 1 ) leds [4] $end
$var wire 1 * leds [3] $end
$var wire 1 + leds [2] $end
$var wire 1 , leds [1] $end
$var wire 1 - leds [0] $end
$var wire 1 . ns_amber_s $end
$var wire 1 / ns_green_s $end
$var wire 1 0 ns_red_s $end
$var wire 1 1 pb_n [3] $end
$var wire 1 2 pb_n [2] $end
$var wire 1 3 pb_n [1] $end
$var wire 1 4 pb_n [0] $end
$var wire 1 5 rst_n $end
$var wire 1 6 seg7_char1 $end
$var wire 1 7 seg7_char2 $end
$var wire 1 8 seg7_data [6] $end
$var wire 1 9 seg7_data [5] $end
$var wire 1 : seg7_data [4] $end
$var wire 1 ; seg7_data [3] $end
$var wire 1 < seg7_data [2] $end
$var wire 1 = seg7_data [1] $end
$var wire 1 > seg7_data [0] $end
$var wire 1 ? sm_clken_s $end
$var wire 1 @ sw [7] $end
$var wire 1 A sw [6] $end
$var wire 1 B sw [5] $end
$var wire 1 C sw [4] $end
$var wire 1 D sw [3] $end
$var wire 1 E sw [2] $end
$var wire 1 F sw [1] $end
$var wire 1 G sw [0] $end

$scope module i1 $end
$var wire 1 H gnd $end
$var wire 1 I vcc $end
$var wire 1 J unknown $end
$var wire 1 K devoe $end
$var wire 1 L devclrn $end
$var wire 1 M devpor $end
$var wire 1 N ww_devoe $end
$var wire 1 O ww_devclrn $end
$var wire 1 P ww_devpor $end
$var wire 1 Q ww_clkin_50 $end
$var wire 1 R ww_rst_n $end
$var wire 1 S ww_pb_n [3] $end
$var wire 1 T ww_pb_n [2] $end
$var wire 1 U ww_pb_n [1] $end
$var wire 1 V ww_pb_n [0] $end
$var wire 1 W ww_sw [7] $end
$var wire 1 X ww_sw [6] $end
$var wire 1 Y ww_sw [5] $end
$var wire 1 Z ww_sw [4] $end
$var wire 1 [ ww_sw [3] $end
$var wire 1 \ ww_sw [2] $end
$var wire 1 ] ww_sw [1] $end
$var wire 1 ^ ww_sw [0] $end
$var wire 1 _ ww_leds [7] $end
$var wire 1 ` ww_leds [6] $end
$var wire 1 a ww_leds [5] $end
$var wire 1 b ww_leds [4] $end
$var wire 1 c ww_leds [3] $end
$var wire 1 d ww_leds [2] $end
$var wire 1 e ww_leds [1] $end
$var wire 1 f ww_leds [0] $end
$var wire 1 g ww_seg7_data [6] $end
$var wire 1 h ww_seg7_data [5] $end
$var wire 1 i ww_seg7_data [4] $end
$var wire 1 j ww_seg7_data [3] $end
$var wire 1 k ww_seg7_data [2] $end
$var wire 1 l ww_seg7_data [1] $end
$var wire 1 m ww_seg7_data [0] $end
$var wire 1 n ww_seg7_char1 $end
$var wire 1 o ww_seg7_char2 $end
$var wire 1 p ww_sm_clken_s $end
$var wire 1 q ww_blink_sig_s $end
$var wire 1 r ww_ns_green_s $end
$var wire 1 s ww_ns_amber_s $end
$var wire 1 t ww_ns_red_s $end
$var wire 1 u ww_ew_green_s $end
$var wire 1 v ww_ew_amber_s $end
$var wire 1 w ww_ew_red_s $end
$var wire 1 x \pb_n[2]~input_o\ $end
$var wire 1 y \pb_n[3]~input_o\ $end
$var wire 1 z \sw[0]~input_o\ $end
$var wire 1 { \sw[1]~input_o\ $end
$var wire 1 | \sw[2]~input_o\ $end
$var wire 1 } \sw[3]~input_o\ $end
$var wire 1 ~ \sw[4]~input_o\ $end
$var wire 1 !! \sw[5]~input_o\ $end
$var wire 1 "! \sw[6]~input_o\ $end
$var wire 1 #! \sw[7]~input_o\ $end
$var wire 1 $! \seg7_data[6]~output_o\ $end
$var wire 1 %! \leds[0]~output_o\ $end
$var wire 1 &! \leds[1]~output_o\ $end
$var wire 1 '! \leds[2]~output_o\ $end
$var wire 1 (! \leds[3]~output_o\ $end
$var wire 1 )! \leds[4]~output_o\ $end
$var wire 1 *! \leds[5]~output_o\ $end
$var wire 1 +! \leds[6]~output_o\ $end
$var wire 1 ,! \leds[7]~output_o\ $end
$var wire 1 -! \seg7_data[0]~output_o\ $end
$var wire 1 .! \seg7_data[1]~output_o\ $end
$var wire 1 /! \seg7_data[2]~output_o\ $end
$var wire 1 0! \seg7_data[3]~output_o\ $end
$var wire 1 1! \seg7_data[4]~output_o\ $end
$var wire 1 2! \seg7_data[5]~output_o\ $end
$var wire 1 3! \seg7_char1~output_o\ $end
$var wire 1 4! \seg7_char2~output_o\ $end
$var wire 1 5! \sm_clken_s~output_o\ $end
$var wire 1 6! \blink_sig_s~output_o\ $end
$var wire 1 7! \ns_green_s~output_o\ $end
$var wire 1 8! \ns_amber_s~output_o\ $end
$var wire 1 9! \ns_red_s~output_o\ $end
$var wire 1 :! \ew_green_s~output_o\ $end
$var wire 1 ;! \ew_amber_s~output_o\ $end
$var wire 1 <! \ew_red_s~output_o\ $end
$var wire 1 =! \clkin_50~input_o\ $end
$var wire 1 >! \pb_n[0]~input_o\ $end
$var wire 1 ?! \PBFILTER|pb_n_filtered[0]~0_combout\ $end
$var wire 1 @! \rst_n~input_o\ $end
$var wire 1 A! \PBFILTER|rst_n_filtered~0_combout\ $end
$var wire 1 B! \SYNCRONIZE|sreg~0_combout\ $end
$var wire 1 C! \NS|sreg~0_combout\ $end
$var wire 1 D! \NSHOLDREG|d~0_combout\ $end
$var wire 1 E! \NSHOLDREG|sreg~q\ $end
$var wire 1 F! \pb_n[1]~input_o\ $end
$var wire 1 G! \PBFILTER|pb_n_filtered[1]~1_combout\ $end
$var wire 1 H! \EW|sreg~0_combout\ $end
$var wire 1 I! \EWHOLDREG|d~0_combout\ $end
$var wire 1 J! \EWHOLDREG|sreg~q\ $end
$var wire 1 K! \CLOCKSIGNAL|clk_divider:counter[0]~1_combout\ $end
$var wire 1 L! \CLOCKSIGNAL|clk_divider:counter[0]~q\ $end
$var wire 1 M! \CLOCKSIGNAL|clk_divider:counter[0]~2\ $end
$var wire 1 N! \CLOCKSIGNAL|clk_divider:counter[1]~1_combout\ $end
$var wire 1 O! \CLOCKSIGNAL|clk_divider:counter[1]~q\ $end
$var wire 1 P! \CLOCKSIGNAL|clk_divider:counter[1]~2\ $end
$var wire 1 Q! \CLOCKSIGNAL|clk_divider:counter[2]~1_combout\ $end
$var wire 1 R! \CLOCKSIGNAL|clk_divider:counter[2]~q\ $end
$var wire 1 S! \CLOCKSIGNAL|clk_divider:counter[2]~2\ $end
$var wire 1 T! \CLOCKSIGNAL|clk_divider:counter[3]~1_combout\ $end
$var wire 1 U! \CLOCKSIGNAL|clk_divider:counter[3]~q\ $end
$var wire 1 V! \CLOCKSIGNAL|clk_divider:counter[3]~2\ $end
$var wire 1 W! \CLOCKSIGNAL|clk_divider:counter[4]~1_combout\ $end
$var wire 1 X! \CLOCKSIGNAL|clk_divider:counter[4]~q\ $end
$var wire 1 Y! \CLOCKSIGNAL|clk_reg_extend~0_combout\ $end
$var wire 1 Z! \CLOCKSIGNAL|clk_reg_extend~1_combout\ $end
$var wire 1 [! \CLOCKSIGNAL|sm_clken~combout\ $end
$var wire 1 \! \STATEMACHINE|current_state~48_combout\ $end
$var wire 1 ]! \STATEMACHINE|current_state.S15~q\ $end
$var wire 1 ^! \STATEMACHINE|current_state~45_combout\ $end
$var wire 1 _! \STATEMACHINE|current_state.S0~q\ $end
$var wire 1 `! \STATEMACHINE|next_state.S1~0_combout\ $end
$var wire 1 a! \STATEMACHINE|current_state~35_combout\ $end
$var wire 1 b! \STATEMACHINE|current_state.S1~q\ $end
$var wire 1 c! \STATEMACHINE|next_state.S2~0_combout\ $end
$var wire 1 d! \STATEMACHINE|current_state.S2~q\ $end
$var wire 1 e! \STATEMACHINE|current_state~34_combout\ $end
$var wire 1 f! \STATEMACHINE|current_state.S3~q\ $end
$var wire 1 g! \STATEMACHINE|current_state~36_combout\ $end
$var wire 1 h! \STATEMACHINE|current_state.S4~q\ $end
$var wire 1 i! \STATEMACHINE|current_state~37_combout\ $end
$var wire 1 j! \STATEMACHINE|current_state.S5~q\ $end
$var wire 1 k! \STATEMACHINE|WideOr4~0_combout\ $end
$var wire 1 l! \STATEMACHINE|current_state~41_combout\ $end
$var wire 1 m! \STATEMACHINE|current_state~42_combout\ $end
$var wire 1 n! \STATEMACHINE|current_state.S6~q\ $end
$var wire 1 o! \STATEMACHINE|current_state~47_combout\ $end
$var wire 1 p! \STATEMACHINE|current_state.S7~q\ $end
$var wire 1 q! \STATEMACHINE|current_state~46_combout\ $end
$var wire 1 r! \STATEMACHINE|current_state.S8~q\ $end
$var wire 1 s! \STATEMACHINE|next_state.S9~0_combout\ $end
$var wire 1 t! \STATEMACHINE|current_state.S9~q\ $end
$var wire 1 u! \STATEMACHINE|next_state.S10~0_combout\ $end
$var wire 1 v! \STATEMACHINE|current_state.S10~q\ $end
$var wire 1 w! \STATEMACHINE|current_state~38_combout\ $end
$var wire 1 x! \STATEMACHINE|current_state.S11~q\ $end
$var wire 1 y! \STATEMACHINE|current_state~39_combout\ $end
$var wire 1 z! \STATEMACHINE|current_state.S12~q\ $end
$var wire 1 {! \STATEMACHINE|current_state~40_combout\ $end
$var wire 1 |! \STATEMACHINE|current_state.S13~q\ $end
$var wire 1 }! \STATEMACHINE|WideOr7~1_combout\ $end
$var wire 1 ~! \STATEMACHINE|current_state~43_combout\ $end
$var wire 1 !" \STATEMACHINE|current_state~44_combout\ $end
$var wire 1 "" \STATEMACHINE|current_state.S14~q\ $end
$var wire 1 #" \LIGHTS|clk_proc:COUNT[0]~0_combout\ $end
$var wire 1 $" \LIGHTS|clk_proc:COUNT[0]~q\ $end
$var wire 1 %" \LIGHTS|clk_proc:COUNT[1]~1_combout\ $end
$var wire 1 &" \LIGHTS|clk_proc:COUNT[1]~q\ $end
$var wire 1 '" \LIGHTS|clk_proc:COUNT[1]~2\ $end
$var wire 1 (" \LIGHTS|clk_proc:COUNT[2]~1_combout\ $end
$var wire 1 )" \LIGHTS|clk_proc:COUNT[2]~q\ $end
$var wire 1 *" \LIGHTS|clk_proc:COUNT[2]~2\ $end
$var wire 1 +" \LIGHTS|clk_proc:COUNT[3]~1_combout\ $end
$var wire 1 ," \LIGHTS|clk_proc:COUNT[3]~q\ $end
$var wire 1 -" \LIGHTS|clk_proc:COUNT[3]~2\ $end
$var wire 1 ." \LIGHTS|clk_proc:COUNT[4]~1_combout\ $end
$var wire 1 /" \LIGHTS|clk_proc:COUNT[4]~q\ $end
$var wire 1 0" \LIGHTS|clk_proc:COUNT[4]~2\ $end
$var wire 1 1" \LIGHTS|clk_proc:COUNT[5]~1_combout\ $end
$var wire 1 2" \LIGHTS|clk_proc:COUNT[5]~q\ $end
$var wire 1 3" \LIGHTS|clk_proc:COUNT[5]~2\ $end
$var wire 1 4" \LIGHTS|clk_proc:COUNT[6]~1_combout\ $end
$var wire 1 5" \LIGHTS|clk_proc:COUNT[6]~q\ $end
$var wire 1 6" \LIGHTS|clk_proc:COUNT[6]~2\ $end
$var wire 1 7" \LIGHTS|clk_proc:COUNT[7]~1_combout\ $end
$var wire 1 8" \LIGHTS|clk_proc:COUNT[7]~q\ $end
$var wire 1 9" \LIGHTS|clk_proc:COUNT[7]~2\ $end
$var wire 1 :" \LIGHTS|clk_proc:COUNT[8]~1_combout\ $end
$var wire 1 ;" \LIGHTS|clk_proc:COUNT[8]~q\ $end
$var wire 1 <" \LIGHTS|clk_proc:COUNT[8]~2\ $end
$var wire 1 =" \LIGHTS|clk_proc:COUNT[9]~1_combout\ $end
$var wire 1 >" \LIGHTS|clk_proc:COUNT[9]~q\ $end
$var wire 1 ?" \LIGHTS|clk_proc:COUNT[9]~2\ $end
$var wire 1 @" \LIGHTS|clk_proc:COUNT[10]~1_combout\ $end
$var wire 1 A" \LIGHTS|clk_proc:COUNT[10]~q\ $end
$var wire 1 B" \STATEMACHINE|ns_amber~0_combout\ $end
$var wire 1 C" \LIGHTS|DOUT_TEMP[6]~0_combout\ $end
$var wire 1 D" \STATEMACHINE|WideOr2~0_combout\ $end
$var wire 1 E" \STATEMACHINE|WideOr6~0_combout\ $end
$var wire 1 F" \STATEMACHINE|WideOr9~0_combout\ $end
$var wire 1 G" \STATEMACHINE|WideOr8~0_combout\ $end
$var wire 1 H" \STATEMACHINE|WideOr9~combout\ $end
$var wire 1 I" \STATEMACHINE|WideOr8~1_combout\ $end
$var wire 1 J" \STATEMACHINE|WideOr8~combout\ $end
$var wire 1 K" \STATEMACHINE|WideOr7~0_combout\ $end
$var wire 1 L" \STATEMACHINE|WideOr7~combout\ $end
$var wire 1 M" \STATEMACHINE|WideOr4~combout\ $end
$var wire 1 N" \LIGHTS|DOUT[0]~0_combout\ $end
$var wire 1 O" \CLOCKSIGNAL|blink_sig~0_combout\ $end
$var wire 1 P" \CLOCKSIGNAL|blink_sig~q\ $end
$var wire 1 Q" \STATEMACHINE|Selector2~2_combout\ $end
$var wire 1 R" \STATEMACHINE|Selector3~2_combout\ $end
$var wire 1 S" \LIGHTS|DOUT[3]~1_combout\ $end
$var wire 1 T" \STATEMACHINE|ew_amber~combout\ $end
$var wire 1 U" \PBFILTER|sreg4\ [3] $end
$var wire 1 V" \PBFILTER|sreg4\ [2] $end
$var wire 1 W" \PBFILTER|sreg4\ [1] $end
$var wire 1 X" \PBFILTER|sreg4\ [0] $end
$var wire 1 Y" \SYNCRONIZE|sreg\ [1] $end
$var wire 1 Z" \SYNCRONIZE|sreg\ [0] $end
$var wire 1 [" \NS|sreg\ [1] $end
$var wire 1 \" \NS|sreg\ [0] $end
$var wire 1 ]" \EW|sreg\ [1] $end
$var wire 1 ^" \EW|sreg\ [0] $end
$var wire 1 _" \CLOCKSIGNAL|clk_reg_extend\ [1] $end
$var wire 1 `" \CLOCKSIGNAL|clk_reg_extend\ [0] $end
$var wire 1 a" \PBFILTER|sreg0\ [3] $end
$var wire 1 b" \PBFILTER|sreg0\ [2] $end
$var wire 1 c" \PBFILTER|sreg0\ [1] $end
$var wire 1 d" \PBFILTER|sreg0\ [0] $end
$var wire 1 e" \PBFILTER|sreg1\ [3] $end
$var wire 1 f" \PBFILTER|sreg1\ [2] $end
$var wire 1 g" \PBFILTER|sreg1\ [1] $end
$var wire 1 h" \PBFILTER|sreg1\ [0] $end
$var wire 1 i" \STATEMACHINE|ALT_INV_ns_amber~0_combout\ $end
$var wire 1 j" \STATEMACHINE|ALT_INV_WideOr4~combout\ $end
$var wire 1 k" \STATEMACHINE|ALT_INV_WideOr7~combout\ $end
$var wire 1 l" \STATEMACHINE|ALT_INV_WideOr8~combout\ $end
$var wire 1 m" \STATEMACHINE|ALT_INV_WideOr9~combout\ $end
$var wire 1 n" \STATEMACHINE|ALT_INV_WideOr2~0_combout\ $end
$var wire 1 o" \LIGHTS|ALT_INV_clk_proc:COUNT[10]~q\ $end
$upscope $end
$upscope $end
$enddefinitions $end
#0
$dumpvars
0!
0"
0#
0$
1%
0.
0/
00
05
16
07
0?
0H
1I
xJ
1K
1L
1M
1N
1O
1P
0Q
0R
1n
0o
0p
0q
0r
0s
0t
0u
0v
1w
0x
0y
xz
x{
x|
x}
x~
x!!
x"!
x#!
0$!
0%!
0&!
0'!
0(!
0)!
0*!
0+!
0,!
1-!
0.!
0/!
00!
01!
02!
13!
04!
05!
06!
07!
08!
09!
0:!
0;!
1<!
0=!
1>!
1?!
0@!
1A!
0B!
0C!
0D!
0E!
1F!
1G!
0H!
0I!
0J!
1K!
0L!
0M!
0N!
0O!
1P!
0Q!
0R!
0S!
0T!
0U!
1V!
0W!
0X!
0Y!
0Z!
0[!
0\!
0]!
0^!
0_!
1`!
0a!
0b!
0c!
0d!
0e!
0f!
0g!
0h!
0i!
0j!
0k!
0l!
0m!
0n!
0o!
0p!
0q!
0r!
0s!
0t!
0u!
0v!
0w!
0x!
0y!
0z!
0{!
0|!
1}!
0~!
0!"
0""
1#"
0$"
0%"
0&"
0'"
0("
0)"
1*"
0+"
0,"
0-"
0."
0/"
10"
01"
02"
03"
04"
05"
16"
07"
08"
09"
0:"
0;"
1<"
0="
0>"
0?"
0@"
0A"
1B"
0C"
1D"
0E"
0F"
0G"
1H"
0I"
1J"
1K"
1L"
1M"
1N"
0O"
0P"
0Q"
0R"
0S"
0T"
0i"
0j"
0k"
0l"
0m"
0n"
1o"
01
02
13
14
0S
0T
1U
1V
xW
xX
xY
xZ
x[
x\
x]
x^
0_
0`
0a
0b
0c
0d
0e
0f
0g
0h
0i
0j
0k
0l
1m
0U"
0V"
0W"
0X"
0Y"
0Z"
0["
0\"
0]"
0^"
0_"
0`"
0a"
0b"
0c"
0d"
0e"
0f"
0g"
0h"
0&
0'
0(
0)
0*
0+
0,
0-
08
09
0:
0;
0<
0=
1>
x@
xA
xB
xC
xD
xE
xF
xG
$end
#20000
1"
1Q
1=!
1d"
1Z"
1\"
1h"
1^"
1L!
1$"
0#"
1%"
0K!
1M!
1H!
1C!
1B!
1N!
#40000
0"
0Q
0=!
#60000
1"
1Q
1=!
1c"
1Y"
1["
1g"
1]"
0L!
1O!
0$"
1&"
1#"
0N!
0P!
1K!
0M!
0G!
0B!
0C!
0H!
1a!
0?!
1N!
1P!
1Q!
0Q!
#80000
0"
0Q
0=!
#100000
1"
1Q
1=!
1b"
0Z"
0Y"
0\"
0["
1f"
0^"
0]"
0O!
1$"
0#"
0%"
1'"
0N!
0a!
1("
#120000
0"
0Q
0=!
#140000
1"
1Q
1=!
1a"
1Z"
1e"
1L!
0$"
0&"
1)"
0("
0*"
1#"
0'"
0K!
1M!
1B!
1N!
1("
1*"
1+"
0+"
#160000
0"
0Q
0=!
#180000
1"
1Q
1=!
1Y"
0L!
1O!
1$"
0#"
1%"
0N!
0P!
1K!
0M!
0B!
1a!
1N!
1P!
1Q!
0Q!
#200000
0"
0Q
0=!
#220000
1"
1Q
1=!
0Z"
0Y"
0O!
0$"
1&"
1#"
0N!
0a!
#240000
0"
0Q
0=!
#260000
1"
1Q
1=!
1Z"
1L!
1$"
0#"
0%"
1'"
0K!
1M!
1B!
1N!
0("
0*"
1+"
#280000
0"
0Q
0=!
#300000
1"
1Q
1=!
1Y"
0L!
1O!
0$"
0&"
0)"
1,"
0+"
1-"
1("
1*"
1#"
0'"
0N!
0P!
1K!
0M!
0B!
1a!
1N!
1P!
1Q!
0("
1+"
0-"
1."
0."
0Q!
#320000
0"
0Q
0=!
#340000
1"
1Q
1=!
0Z"
0Y"
0O!
1$"
0#"
1%"
0N!
0a!
#360000
0"
0Q
0=!
#380000
1"
1Q
1=!
1Z"
1L!
0$"
1&"
1#"
0K!
1M!
1B!
1N!
#400000
0"
0Q
0=!
#420000
1"
1Q
1=!
1Y"
0L!
1O!
1$"
0#"
0%"
1'"
0N!
0P!
1K!
0M!
0B!
1a!
1N!
1P!
1Q!
1("
0Q!
#440000
0"
0Q
0=!
#460000
1"
1Q
1=!
0Z"
0Y"
0O!
0$"
0&"
1)"
0("
0*"
1#"
0'"
0N!
0a!
1("
1*"
0+"
1-"
1."
1+"
0-"
0."
#480000
0"
0Q
0=!
#500000
1"
1Q
1=!
1Z"
1L!
1$"
0#"
1%"
0K!
1M!
1B!
1N!
#520000
0"
0Q
0=!
#540000
1"
1Q
1=!
1Y"
0L!
1O!
0$"
1&"
1#"
0N!
0P!
1K!
0M!
0B!
1a!
1N!
1P!
1Q!
0Q!
#560000
0"
0Q
0=!
#580000
1"
1Q
1=!
0Z"
0Y"
0O!
1$"
0#"
0%"
1'"
0N!
0a!
0("
0*"
0+"
1-"
1."
#600000
0"
0Q
0=!
#620000
1"
1Q
1=!
1Z"
1L!
0$"
0&"
0)"
0,"
1/"
0."
00"
1+"
0-"
1("
1*"
1#"
0'"
0K!
1M!
1B!
1N!
0("
0+"
1."
10"
11"
01"
#640000
0"
15
0Q
1R
1@!
0=!
#660000
1"
1Q
1=!
1X"
1Y"
0L!
1O!
1$"
0#"
1%"
0N!
0P!
1K!
0M!
0B!
1a!
1N!
1P!
1Q!
0Q!
#680000
0"
0Q
0=!
#700000
1"
1Q
1=!
1W"
0Z"
0Y"
0O!
0$"
1&"
1#"
0N!
0a!
0A!
#720000
0"
0Q
0=!
#740000
1"
1Q
1=!
1V"
1L!
1$"
0#"
0%"
1'"
0K!
1M!
1N!
1("
#760000
0"
0Q
0=!
#780000
1"
1Q
1=!
1U"
0L!
1O!
0$"
0&"
1)"
0("
0*"
1#"
0'"
0N!
0P!
1K!
0M!
1N!
1P!
1Q!
1("
1*"
1+"
0+"
0Q!
#800000
0"
0Q
0=!
#820000
1"
1Q
1=!
1L!
1$"
0#"
1%"
0K!
1M!
0N!
0P!
1Q!
#840000
0"
0Q
0=!
#860000
1"
1Q
1=!
0L!
0O!
1R!
0$"
1&"
1#"
0Q!
1S!
1O"
1N!
1P!
1K!
0M!
0N!
1Q!
0S!
1T!
0T!
#880000
0"
0Q
0=!
#900000
1"
1Q
1=!
1L!
1$"
1P"
16!
1Q"
0#"
0%"
1'"
0K!
1M!
1q
17!
1N!
0("
0*"
1!
1r
1+"
1/
#920000
0"
0Q
0=!
#940000
1"
1Q
1=!
0L!
1O!
0$"
0&"
0)"
1,"
0+"
1-"
1("
1*"
1#"
0'"
0N!
0P!
1K!
0M!
1N!
1P!
0Q!
1S!
0("
1+"
0-"
0."
00"
11"
1."
10"
1T!
1Q!
0S!
0T!
01"
#960000
0"
0Q
0=!
#980000
1"
1Q
1=!
1L!
1$"
0#"
1%"
0K!
1M!
0N!
0P!
0Q!
1S!
1T!
#1000000
0"
0Q
0=!
#1020000
1"
1Q
1=!
0L!
0O!
0R!
1U!
0$"
1&"
1#"
0T!
0V!
1Q!
0S!
0O"
1N!
1P!
1K!
0M!
0N!
0Q!
1T!
1V!
1W!
0W!
#1040000
0"
0Q
0=!
#1060000
1"
1Q
1=!
1L!
1$"
0P"
06!
0Q"
0#"
0%"
1'"
0K!
1M!
0q
07!
1N!
1("
0!
0r
0/
#1080000
0"
0Q
0=!
#1100000
1"
1Q
1=!
0L!
1O!
0$"
0&"
1)"
0("
0*"
1#"
0'"
0N!
0P!
1K!
0M!
1N!
1P!
1Q!
1("
1*"
0+"
1-"
0."
00"
1+"
0-"
0Q!
1."
10"
11"
01"
#1120000
0"
0Q
0=!
#1140000
1"
1Q
1=!
1L!
1$"
0#"
1%"
0K!
1M!
0N!
0P!
1Q!
#1160000
0"
0Q
0=!
#1180000
1"
1Q
1=!
0L!
0O!
1R!
0$"
1&"
1#"
0Q!
1S!
1O"
1N!
1P!
1K!
0M!
0N!
1Q!
0S!
0T!
0V!
1W!
1T!
1V!
0W!
#1200000
0"
0Q
0=!
#1220000
1"
1Q
1=!
1L!
1$"
1P"
16!
1Q"
0#"
0%"
1'"
0K!
1M!
1q
17!
1N!
0("
0*"
1!
1r
0+"
1-"
1/
0."
00"
11"
#1240000
0"
0Q
0=!
#1260000
1"
1Q
1=!
0L!
1O!
0$"
0&"
0)"
0,"
0/"
12"
01"
13"
1."
10"
1+"
0-"
1("
1*"
1#"
0'"
0N!
0P!
1K!
0M!
1N!
1P!
0Q!
1S!
0("
0+"
0."
11"
03"
14"
04"
0T!
0V!
1Q!
0S!
1T!
1V!
1W!
0W!
#1280000
0"
0Q
0=!
#1300000
1"
1Q
1=!
1L!
1$"
0#"
1%"
0K!
1M!
0N!
0P!
0Q!
1S!
0T!
0V!
1W!
#1320000
0"
0Q
0=!
#1340000
1"
1Q
1=!
0L!
0O!
0R!
0U!
1X!
0$"
1&"
1#"
0W!
1Y!
1T!
1V!
1Q!
0S!
0O"
1N!
1P!
1K!
0M!
0N!
0Q!
0T!
1W!
#1360000
0"
0Q
0=!
#1380000
1"
1Q
1=!
1L!
1`"
1$"
0P"
06!
0Q"
0#"
0%"
1'"
1Z!
1[!
1a!
0K!
1M!
0q
15!
07!
1N!
1^!
1("
0!
1p
0r
1?
0/
#1400000
0"
0Q
0=!
#1420000
1"
1Q
1=!
0L!
1O!
1_"
1_!
1b!
0$"
0&"
1)"
0("
0*"
1#"
0'"
1c!
1I"
0`!
1G"
0[!
0a!
0N!
0P!
1K!
0M!
05!
1N!
1P!
1Q!
0H"
1("
1*"
1+"
1m"
0p
0+"
0Q!
0?
1)!
1b
1)
#1440000
0"
0Q
0=!
#1460000
1"
1Q
1=!
1L!
1$"
0#"
1%"
0K!
1M!
0N!
0P!
1Q!
#1480000
0"
0Q
0=!
#1500000
1"
1Q
1=!
0L!
0O!
1R!
0$"
1&"
1#"
0Q!
1S!
1O"
1N!
1P!
1K!
0M!
0N!
1Q!
0S!
1T!
0T!
#1520000
0"
0Q
0=!
#1540000
1"
1Q
1=!
1L!
1$"
1P"
16!
1Q"
0#"
0%"
1'"
0K!
1M!
1q
17!
1N!
0("
0*"
1!
1r
1+"
1/
#1560000
0"
0Q
0=!
#1580000
1"
1Q
1=!
0L!
1O!
0$"
0&"
0)"
1,"
0+"
1-"
1("
1*"
1#"
0'"
0N!
0P!
1K!
0M!
1N!
1P!
0Q!
1S!
0("
1+"
0-"
1."
0."
1T!
1Q!
0S!
0T!
#1600000
0"
0Q
0=!
#1620000
1"
1Q
1=!
1L!
1$"
0#"
1%"
0K!
1M!
0N!
0P!
0Q!
1S!
1T!
#1640000
0"
0Q
0=!
#1660000
1"
1Q
1=!
0L!
0O!
0R!
1U!
0$"
1&"
1#"
0T!
0V!
1Q!
0S!
0O"
1N!
1P!
1K!
0M!
0N!
0Q!
1T!
1V!
0W!
1W!
#1680000
0"
0Q
0=!
#1700000
1"
1Q
1=!
1L!
1$"
0P"
06!
0Q"
0#"
0%"
1'"
0K!
1M!
0q
07!
1N!
1("
0!
0r
0/
#1720000
0"
0Q
0=!
#1740000
1"
1Q
1=!
0L!
1O!
0$"
0&"
1)"
0("
0*"
1#"
0'"
0N!
0P!
1K!
0M!
1N!
1P!
1Q!
1("
1*"
0+"
1-"
1."
1+"
0-"
0Q!
0."
#1760000
0"
0Q
0=!
#1780000
1"
1Q
1=!
1L!
1$"
0#"
1%"
0K!
1M!
0N!
0P!
1Q!
#1800000
0"
0Q
0=!
#1820000
1"
1Q
1=!
0L!
0O!
1R!
0$"
1&"
1#"
0Q!
1S!
1O"
1N!
1P!
1K!
0M!
0N!
1Q!
0S!
0T!
0V!
0W!
1T!
1V!
1W!
#1840000
0"
0Q
0=!
#1860000
1"
1Q
1=!
1L!
1$"
1P"
16!
1Q"
0#"
0%"
1'"
0K!
1M!
1q
17!
1N!
0("
0*"
1!
1r
0+"
1-"
1/
1."
#1880000
0"
0Q
0=!
#1900000
1"
1Q
1=!
0L!
1O!
0$"
0&"
0)"
0,"
1/"
0."
00"
1+"
0-"
1("
1*"
1#"
0'"
0N!
0P!
1K!
0M!
1N!
1P!
0Q!
1S!
0("
0+"
1."
10"
01"
13"
14"
11"
03"
0T!
0V!
1Q!
0S!
1T!
1V!
0W!
04"
1W!
#1920000
0"
0Q
0=!
#1940000
1"
1Q
1=!
1L!
1$"
0#"
1%"
0K!
1M!
0N!
0P!
0Q!
1S!
0T!
0V!
0W!
#1960000
0"
0Q
0=!
#1980000
1"
1Q
1=!
0L!
0O!
0R!
0U!
0X!
0$"
1&"
1#"
1W!
0Y!
1T!
1V!
1Q!
0S!
0O"
1N!
1P!
1K!
0M!
0N!
0Q!
0T!
0W!
#2000000
0"
0Q
0=!
#2020000
1"
1Q
1=!
1L!
0`"
1$"
0P"
06!
0Q"
0#"
0%"
1'"
0Z!
0K!
1M!
0q
07!
1N!
1("
0!
0r
0/
#2040000
0"
0Q
0=!
#2060000
1"
1Q
1=!
0L!
1O!
0_"
0$"
0&"
1)"
0("
0*"
1#"
0'"
0N!
0P!
1K!
0M!
1N!
1P!
1Q!
1("
1*"
1+"
0+"
0Q!
#2080000
0"
0Q
0=!
#2100000
1"
1Q
1=!
1L!
1$"
0#"
1%"
0K!
1M!
0N!
0P!
1Q!
#2120000
0"
0Q
0=!
#2140000
1"
1Q
1=!
0L!
0O!
1R!
0$"
1&"
1#"
0Q!
1S!
1O"
1N!
1P!
1K!
0M!
0N!
1Q!
0S!
1T!
0T!
#2160000
0"
0Q
0=!
#2180000
1"
1Q
1=!
1L!
1$"
1P"
16!
1Q"
0#"
0%"
1'"
0K!
1M!
1q
17!
1N!
0("
0*"
1!
1r
1+"
1/
#2200000
0"
0Q
0=!
#2220000
1"
1Q
1=!
0L!
1O!
0$"
0&"
0)"
1,"
0+"
1-"
1("
1*"
1#"
0'"
0N!
0P!
1K!
0M!
1N!
1P!
0Q!
1S!
0("
1+"
0-"
0."
00"
01"
13"
1."
10"
1T!
1Q!
0S!
0T!
11"
03"
14"
04"
#2240000
0"
0Q
0=!
#2260000
1"
1Q
1=!
1L!
1$"
0#"
1%"
0K!
1M!
0N!
0P!
0Q!
1S!
1T!
#2280000
0"
0Q
0=!
#2300000
1"
1Q
1=!
0L!
0O!
0R!
1U!
0$"
1&"
1#"
0T!
0V!
1Q!
0S!
0O"
1N!
1P!
1K!
0M!
0N!
0Q!
1T!
1V!
1W!
0W!
#2320000
0"
0Q
0=!
#2340000
1"
1Q
1=!
1L!
1$"
0P"
06!
0Q"
0#"
0%"
1'"
0K!
1M!
0q
07!
1N!
1("
0!
0r
0/
#2360000
0"
0Q
0=!
